\relax 
\providecommand\hyper@newdestlabel[2]{}
\@writefile{lol}{\contentsline {lstlisting}{\numberline {1}Методы Пикара}{2}{lstlisting.0.1}\protected@file@percent }
\@writefile{lol}{\contentsline {lstlisting}{\numberline {2}Метод Эйлера}{3}{lstlisting.0.2}\protected@file@percent }
\@writefile{lol}{\contentsline {lstlisting}{\numberline {3}Метод Рунге-Кутта второго порядка}{3}{lstlisting.0.3}\protected@file@percent }
\@setckpt{03-intro}{
\setcounter{page}{4}
\setcounter{equation}{0}
\setcounter{enumi}{0}
\setcounter{enumii}{0}
\setcounter{enumiii}{0}
\setcounter{enumiv}{0}
\setcounter{footnote}{0}
\setcounter{mpfootnote}{0}
\setcounter{part}{0}
\setcounter{chapter}{0}
\setcounter{section}{0}
\setcounter{subsection}{0}
\setcounter{subsubsection}{0}
\setcounter{paragraph}{0}
\setcounter{subparagraph}{0}
\setcounter{figure}{0}
\setcounter{table}{0}
\setcounter{caption@flags}{0}
\setcounter{continuedfloat}{0}
\setcounter{parentequation}{0}
\setcounter{lstnumber}{11}
\setcounter{Item}{0}
\setcounter{Hfootnote}{0}
\setcounter{bookmark@seq@number}{0}
\setcounter{csvinputline}{0}
\setcounter{csvrow}{0}
\setcounter{csvcol}{0}
\setcounter{lstlisting}{3}
\setcounter{section@level}{0}
}
